2 Random Intercepts – AOMS5
…
2.7 Simulating Trials

In a trial, a single participant responds to a single item. We simulate trials by simulating the meeting between participants and items.

As DeBruine and Barr (2021) do, we’ll simulate this using the crossing() function from tidyr. This simulates a study in which all 30 participants respond to 50 items, producing a total 1500 trials. For each unique combination of item and participant, we also simulate the residuals, \(e_{ip}\).

# generate trials
trials <- crossing(items, participants) |>
  mutate(e_ip = rnorm(n(), 0, s_e))

# print the first few rows
print(trials)

# A tibble: 1,500 × 6
    i_id  zipf   I_0i  p_id     P_0p    e_ip
   <int> <dbl>  <dbl> <int>    <dbl>   <dbl>
 1     1  6.80 0.0698     1 -0.00396  0.518 
 2     1  6.80 0.0698     2  0.192    0.0523
 3     1  6.80 0.0698     3  0.0264   0.147 
 4     1  6.80 0.0698     4  0.220    0.141 
 5     1  6.80 0.0698     5 -0.177   -0.642 
 6     1  6.80 0.0698     6 -0.0287   0.236 
 7     1  6.80 0.0698     7  0.152   -0.124 
 8     1  6.80 0.0698     8  0.00549  0.445 
 9     1  6.80 0.0698     9  0.0114  -0.218 
10     1  6.80 0.0698    10  0.115   -0.212 
# ℹ 1,490 more rows
…
The ranef() function gives us the random-effect estimates for all participants and items. Here, we extract the per-participant estimates, and coerce them to a dataframe.

# extract random-effect estimates
res <- ranef(m)

# extract participant random effects specifically
res_p_df <- res$p_id |>
  # coerce to a dataframe
  as_tibble(rownames="p_id") |>
  # rename the "(Intercept)" column to remove the parentheses
  rename(est_P_0p = `(Intercept)`)

print(res_p_df)

# A tibble: 30 × 2
   p_id   est_P_0p
   <chr>     <dbl>
 1 1     -0.0213  
 2 2      0.0693  
 3 3     -0.0218  
 4 4      0.124   
 5 5     -0.150   
 6 6     -0.000906
 7 7      0.0687  
 8 8     -0.00525 
 9 9      0.00635 
10 10     0.0430  
# ℹ 20 more rows
…
