3 Random Slopes – AOMS5 Workshop - Modelling Behaviour with Mixed Effects
…
As before, the red line shows the fixed effect, while the black lines show variability between (a) items and (b) participants.

3.6 Simulating Trials

This section is actually identical to what we did before. We get all combinations of items and participants, and then simulate \(e_{ip}\) (e_ip) as random noise of mean 0 and SD \(\sigma_e\) (s_e).

# generate trials
trials <- crossing(items, participants) |>
  mutate(e_ip = rnorm(n(), 0, s_e))

# print the first few rows
print(trials)

# A tibble: 1,500 × 7
    i_id  zipf    I_0i  p_id    P_0p     P_1p     e_ip
   <int> <dbl>   <dbl> <int>   <dbl>    <dbl>    <dbl>
 1     1  2.14 -0.0319     1 -0.0845 -0.0483   0.243  
 2     1  2.14 -0.0319     2 -0.0191  0.0506  -0.00215
 3     1  2.14 -0.0319     3 -0.119   0.0193  -0.174  
 4     1  2.14 -0.0319     4 -0.457   0.00928 -0.0368 
 5     1  2.14 -0.0319     5 -0.129   0.0535  -0.0455 
 6     1  2.14 -0.0319     6  0.232  -0.0304  -0.0161 
 7     1  2.14 -0.0319     7 -0.108  -0.00698  0.200  
 8     1  2.14 -0.0319     8 -0.0559 -0.0449   0.0264 
 9     1  2.14 -0.0319     9  0.155  -0.0339   0.360  
10     1  2.14 -0.0319    10 -0.0665 -0.0429   0.181  
# ℹ 1,490 more rows
…
Simulating responses is again similar to what we did before, except we now also want to include the random slopes in the formula.

Show solution

# simulate response times
trials <- mutate(
    trials,
    log_rt = b_0 + I_0i + P_0p + (b_1 + P_1p) * zipf + e_ip
  )

# print the first few rows
print(trials)

# A tibble: 1,500 × 8
    i_id  zipf    I_0i  p_id    P_0p     P_1p     e_ip log_rt
   <int> <dbl>   <dbl> <int>   <dbl>    <dbl>    <dbl>  <dbl>
 1     1  2.14 -0.0319     1 -0.0845 -0.0483   0.243     6.66
 2     1  2.14 -0.0319     2 -0.0191  0.0506  -0.00215   6.69
 3     1  2.14 -0.0319     3 -0.119   0.0193  -0.174     6.35
 4     1  2.14 -0.0319     4 -0.457   0.00928 -0.0368    6.13
 5     1  2.14 -0.0319     5 -0.129   0.0535  -0.0455    6.54
 6     1  2.14 -0.0319     6  0.232  -0.0304  -0.0161    6.75
 7     1  2.14 -0.0319     7 -0.108  -0.00698  0.200     6.68
 8     1  2.14 -0.0319     8 -0.0559 -0.0449   0.0264    6.48
 9     1  2.14 -0.0319     9  0.155  -0.0339   0.360     7.05
10     1  2.14 -0.0319    10 -0.0665 -0.0429   0.181     6.63
# ℹ 1,490 more rows
…
