4 Random Correlations – AOMS5 Workshop - Modelling Behaviour with Mixed Effects
…
print(ab_df)

# A tibble: 250 × 2
       a      b
   <dbl>  <dbl>
 1  8.08   7.32
 2  6.58   3.28
 3  7.48   5.91
 4  6.34 -17.1 
 5  7.40   1.08
 6  6.25 -11.1 
 7  6.66 -11.3 
 8  6.42  12.7 
 9  7.69   6.09
10  6.85  -6.23
# ℹ 240 more rows
…
\(e_{ip}\) (e_ip) as random noise of mean 0 and SD \(\sigma_e\) (s_e)

\(logRT\) (log_rt) using the equation at the top

# generate trials
trials <- crossing(items, participants) |>
  mutate(
    e_ip = rnorm(n(), 0, s_e),
    log_rt = b_0 + I_0i + P_0p + (b_1 + P_1p) * zipf + e_ip
  )

# print the first few rows
print(trials)

# A tibble: 1,500 × 8
    i_id  zipf  I_0i    P_0p      P_1p  p_id    e_ip log_rt
   <int> <dbl> <dbl>   <dbl>     <dbl> <int>   <dbl>  <dbl>
 1     1  5.91 0.149 -0.218  -0.000215    27 -0.217    5.97
 2     1  5.91 0.149 -0.191   0.0150       2 -0.211    6.09
 3     1  5.91 0.149 -0.170   0.0699       1 -0.132    6.52
 4     1  5.91 0.149 -0.167  -0.0317       9  0.270    6.32
 5     1  5.91 0.149 -0.147   0.0335      19  0.108    6.57
 6     1  5.91 0.149 -0.132   0.0339      21 -0.0285   6.45
 7     1  5.91 0.149 -0.132  -0.0207      12  0.821    6.97
 8     1  5.91 0.149 -0.0878  0.0386      30 -0.333    6.22
 9     1  5.91 0.149 -0.0636  0.0289       8  0.248    6.76
10     1  5.91 0.149 -0.0550  0.0404      17  0.653    7.24
# ℹ 1,490 more rows
…
