5 Power Analyses – AOMS5
…
  # return the simulated trials
  trials
}

5.3.1 Example Usage

If your function is similar to mine, then we can call it to simulate some example data. If we don’t provide any inputs, it will use the defaults:

sim_trials()

# A tibble: 1,500 × 8
    i_id  zipf   I_0i    P_0p     P_1p  p_id    e_ip log_rt
   <int> <dbl>  <dbl>   <dbl>    <dbl> <int>   <dbl>  <dbl>
 1     1  7.38 0.0602 -0.417   0.0990      5 -0.407    6.08
 2     1  7.38 0.0602 -0.347   0.0347     14  0.200    6.28
 3     1  7.38 0.0602 -0.274   0.0344     13  0.252    6.40
 4     1  7.38 0.0602 -0.159  -0.0109     20 -0.289    5.64
 5     1  7.38 0.0602 -0.146   0.00871     6  0.0498   6.14
 6     1  7.38 0.0602 -0.138   0.0204     21  0.474    6.66
 7     1  7.38 0.0602 -0.133   0.0289     18  0.129    6.38
 8     1  7.38 0.0602 -0.0975 -0.0140     22  0.109    6.08
 9     1  7.38 0.0602 -0.0902  0.0688     10 -0.157    6.43
10     1  7.38 0.0602 -0.0900  0.00902    24  0.420    6.57
# ℹ 1,490 more rows

Or, we can provide specific inputs to change them from the defaults. For example, here we simulate 250 participants, and increase the SD of random intercepts:

sim_trials(n_participants=250, s_P0=0.3)

# A tibble: 12,500 × 8
    i_id  zipf     I_0i   P_0p   P_1p  p_id    e_ip log_rt
   <int> <dbl>    <dbl>  <dbl>  <dbl> <int>   <dbl>  <dbl>
 1     1  4.72 0.000504 -0.900 0.0784   135  0.513    6.36
 2     1  4.72 0.000504 -0.798 0.0627   234  0.168    6.04
 3     1  4.72 0.000504 -0.797 0.0658   124 -0.172    5.72
 4     1  4.72 0.000504 -0.651 0.0525    23  0.173    6.15
 5     1  4.72 0.000504 -0.620 0.0433    54 -0.0758   5.89
 6     1  4.72 0.000504 -0.605 0.0752   169 -0.204    5.92
 7     1  4.72 0.000504 -0.582 0.0491    73 -0.350    5.68
 8     1  4.72 0.000504 -0.556 0.0539   188 -0.480    5.60
 9     1  4.72 0.000504 -0.550 0.0682    13  0.113    6.26
10     1  4.72 0.000504 -0.542 0.0611   194  1.08     7.21
# ℹ 12,490 more rows
…
