6 Binomial GLMMs – AOMS5 Workshop - Modelling Behaviour with Mixed Effects
…
  trials
}

trials <- sim_trials()

print(trials)

# A tibble: 1,500 × 10
    i_id  zipf    I_0i zipf_sc[,1]    P_0p     P_1p  p_id eta_ip[,1] Pr_ip[,1]
   <int> <dbl>   <dbl>       <dbl>   <dbl>    <dbl> <int>      <dbl>     <dbl>
 1     1  6.46 -0.0598        1.24 -0.496   0.00513     6       3.71     0.976
 2     1  6.46 -0.0598        1.24 -0.247   0.0376     20       4.00     0.982
 3     1  6.46 -0.0598        1.24 -0.215   0.0554      7       4.05     0.983
 4     1  6.46 -0.0598        1.24 -0.189   0.0198     21       4.03     0.983
 5     1  6.46 -0.0598        1.24 -0.181  -0.0105     27       4.00     0.982
 6     1  6.46 -0.0598        1.24 -0.162   0.0118     24       4.05     0.983
 7     1  6.46 -0.0598        1.24 -0.144   0.0707     14       4.14     0.984
 8     1  6.46 -0.0598        1.24 -0.119   0.101       4       4.20     0.985
 9     1  6.46 -0.0598        1.24 -0.0859 -0.0318     23       4.07     0.983
10     1  6.46 -0.0598        1.24 -0.0738  0.0184     17       4.15     0.984
# ℹ 1,490 more rows
# ℹ 1 more variable: is_correct <int>
…
